DING	CLEARTEXT
w	a
A*Gl	albero
DQ=(	avvelenata
%ÜH	bacio
6ª*s	bambina
QHG"	bambino
_(=d	biancaneve
¤&s	bosco
%Üd"	candida
6Q¡n	casina
=6«	che
n%¡	chi
nQ¤l	chiese
ª©4ä	chiesero
;sG*	comprò
¨wt	con
wQ©H	correva
Gs	di
Gs	di
d_¨	diede
=(¤	disse
Q4"	donna
D	e
«.%	era
¡Gnä	felice
du;«	finestra
=&«%	gentilezza
&wdt	giorno
6	i
sQ	il
«Q	in
«lª¤	inganno
d	l
Qt	la
Ü*A	lei
d*	lo
*ld	lui
=ª	ma
;*«	mela
64d	morso
;¤t	nani
nl4	non
ª"ä	ogni
_DG.	ordine
td(	per
Q(sl	principe
ls4	quel
¤Hä"	questo
t¤ª.	ragazza
=Ü	re
;Dn*	regina
&"lA	riconobbe
wä%"	rispose
¨äw	sera
u¨6d	si svegliò
=¡.l	specchio
4ª©.	spezzò
t;l¡	triste
u.	un
¤*D	una
«¨(	uno
ä=(	volpe
