TRANSLATED	CLEARTEXT
«Q u. &wdt unQ% ¤*D ;Dn* ¨äld «Q dHA© w Qt du;«	in un giorno nevoso una regina cuciva in silenzio a la finestra
ud& ä.©A "6* Qt ;Dn* ª©" ¤*D 6ª*s %Üd" "tl Qt 4H"	dopo qualche tempo la regina ebbe una bambina candida come la neve
sQ =Ü D Qt ;Dn* A;t* Qt 6ª*s _(=d	il re e la regina chiamarono la bambina biancaneve
ud& Qt s«ª Gs Qt ;Dn* ¤*D ©4t Q4" u.¡ sQ =Ü	dopo la morte di la regina una altra donna sposò il re
Qt Q4" Ü.&6 «¨( =¡.l	la donna possedeva uno specchio
u. &wdt Qt Q4" nQ¤l w d* =¡.l	un giorno la donna chiese a lo specchio
n%¡ ä _l¡ «t_ D¤*u «Q ¤Hä" ln_(	chi è bella senza rivali in questo castello
d* =¡.l wä%" w Qt ;Dn*	lo specchio rispose a la regina
(= "=¨ _l¡ «t_ D¤*u	tu sei bella senza rivali
ud& ä.©A "6* Qt ;Dn* nQ¤l D©u* w d* =¡.l	dopo qualche tempo la regina chiese ancora a lo specchio
n%¡ ä _l¡ «t_ D¤*u «Q ¤Hä" ln_(	chi è bella senza rivali in questo castello
d* =¡.l =(¤	lo specchio disse
_(=d ä _l¡ «t_ D¤*u «Q ¤Hä" ln_(	biancaneve è bella senza rivali in questo castello
Qt ;Dn* &4u6 d_¨ _DG. w u. ;QÜä Gs Ds¡; _(=d	la regina gelosa diede ordine a un cacciatore di uccidere biancaneve
=ª Qt t¤ª. s*4u w %=¤Q «Q sQ ¤&s	ma la ragazza riuscì a scappare in il bosco
Gs ¨äw _(=d ud_ ¤*D =_Qu ;wl D ªQG td( =dQt	di sera biancaneve vide una piccola casa e entrò per riposare
ª"ä _.u «Q Qt ;wl «.% &64ä	ogni cosa in la casa era minuscola
sQ *"td A=wu6 äÜ ¤*D 4=%" %Üd"	il tavolino era coperto da una tovaglia candida
.d4&ª ¨wt u¨d &¨*¤	era apparecchiato con sette piattini
ª"ä t%«D *nª sQ %Ü_ Dn«w	ogni piattino aveva il suo cucchiaino
lD"d u¨d sw¤H u¨d HäDQ u¨d s4Hª¨	ci erano sette coltelli sette forchette sette bicchierini
_(=d =©s"; ¨* u. Dduª	biancaneve si addormentò su un lettino
Gs ¨äw (nÜ= 6 w4;_ Gs ;wl	di sera tornarono i padroni di casa
l«t ;¤t =6« ;w¡n d u4« äÜ 6 dH¡	erano nani che estraevano l oro da i monti
6 ;¤t Q*D.6 =6« wDuä =¡©6D	i nani si accorsero che qualcuno era entrato
sQ d4w =(¤	il primo disse
n%¡ (&¨Ü u. 64d w sQ AG* 4¤_¨	chi ha dato un morso a il mio panino
sQ ¡.Ü% =(¤ w u. wst _(A	il secondo disse a un altro nano
n%¡ w;s¤ Qt "¡_ ÜH4A&	chi ha usato la mia forchettina
Gs A.«Q _(=d u¨6d	di mattina biancaneve si svegliò
6 ;¤t ª©4ä w _(=d ¨wt =&«%	i nani chiesero a biancaneve con gentilezza
"tl n=HÜ	Come ti chiami
©&w« _(=d	mi chiamo biancaneve
_(=d wä%" w 6 ;¤t	biancaneve rispose a i nani
"tl nH.lw «Q Qt Üd&% 6Q¡n	come sei arrivata in la nostra casina
6 ;¤t ª©4ä ¨wt ntDQ	i nani chiesero con curiosità
_(=d ls=A w (4_Q Qt H¤& ¤Üdt	biancaneve iniziò a raccontare la sua storia
Qt ;Dn* d_¨ _DG. Gs H4&d =ª Ü*A D;¤(.	la regina diede ordine di ucciderla ma lei era scappata
u. _(A nQ¤l w _(=d Gs n«*( ¨wt Q©% «Q Qt 6Q¡n	un nano chiese a biancaneve di rimanere con loro in la casina
_(=d Gu(t ¡Gnä D d_¨ u. %ÜH w ª"ä _(A	biancaneve accettò felice e diede un bacio a ogni nano
Gs &wdt 6 ;¤t ¡s*D ¨* 6 dH¡ w «H%u d u4«	di giorno i nani andavano su i monti a cercare l oro
_(=d Ü;Gl n«*( ¤;n «Q Qt 6Q¡n	biancaneve era solita rimanere sola in la casina
Ü*A ¨äld D HÜ&« wQ6n «.% «Q Qt 6Q¡n	lei cuciva e leggeva quando era in la casina
&ª(s «Q sQ ln_( Qt ;Dn* %A¨G w d* =¡.l	intanto in il castello la regina chiedeva a lo specchio
n%¡ ä _l¡ «t_ D¤*u «Q ¤Hä" ln_(	chi è bella senza rivali in questo castello
ls4 &wdt Qt un(d Gs d* =¡.l ¨©	quel giorno la risposta di lo specchio fu
«Q sQ ln_( (= nl4 ;wA D¤*u	in il castello tu non hai rivali
=ª _(=d ä _l¡ «t_ D¤*u «Q Qt 6Q¡n	ma biancaneve è bella senza rivali in la casina
Qt ;Dn* t6l d «lª¤ Gs sQ ;QÜä D =(¤	la regina capì l inganno di il cacciatore e disse
nl.= ¨t¤4 _(=d 6t *d;w	allora ucciderò Biancaneve io stessa
Qt ;Dn* u(l% ¤*D Q¡(d DQ=( D tn.Qu äÜ snu. d©Ü=	la regina preparò una pozione avvelenata e si travestì da vecchia strega
6"* w Qt 6Q¡n Gs 6 u¨d ;¤t	andò a la casina di i sette nani
_(=d nl4 &"lA Qt ;Dn*	biancaneve non riconobbe la regina
un= Qt ;4D w Qt snu.	aprì la porta a la vecchia
Qt ;Dn* ä¨*; nQ¤l w _(=d	la regina travestita chiese a biancaneve
HlÜD ¤*D ;*«	desideri una mela
_(=d nl4 ä*_s =6« Qt ;*« «.% DQ=(	biancaneve non sapeva che la mela era avvelenata
Qt t¤ª. d_¨ u. 64d w Qt ;*« DQ=( D ©«( ;sDn «Q u. %H¤ Ü"6tl	la ragazza diede un morso a la mela avvelenata e cadde subito in un sonno profondissimo
Qt ¨äw 6 ;¤t (nÜ= w ;wl D &©ud Qt t¤ª. %sw_	la sera i nani tornarono a casa e trovarono la ragazza svenuta
u. _(A &"lA Qt ;ät Gs Qt ;Dn*	un nano riconobbe la magia di la regina
sQ _(A u(l% u. Dduª w _(=d	il nano preparò un lettino a biancaneve
u. &wdt Dtªä u. Q(sl	un giorno arrivò un principe
sQ Q(sl d_¨ u. %ÜH w _(=d D 4ª©. Qt ;ät	il principe diede un bacio a biancaneve e spezzò la magia
Qt t¤ª. u¨6d ¡Gnä	la ragazza si svegliò felice
