TRANSLATED	CLEARTEXT
el	a
el	a
el	a
el	a
el	a
sakov	altro
erpalam	biancaneve
erpalam	biancaneve
lmera	casina
lmera	casina
klocet	chiesero
erces	disse
erces	disse
erces	disse
ykrec	giorno
ta	i
rly	il
pry	la
pry	la
pry	la
pry	la
kar	lo
kar	lo
kar	lo
kar	lo
meka	nani
emac	nano
emac	nano
evyr	non
yramy	nostra
orroke	pidocchio
ecyv	quel
yso	re
kapase	riconobbe
kapase	riconobbe
cyket	rispose
lpovry	specchio
lpovry	specchio
lpovry	specchio
lpovry	specchio
tmo	un
tmo	un
ryras	vecchia
ryras	vecchia
