TRANSLATED	CLEARTEXT
ä.©A 6ª* "6*H ª©"% 6ª* %ÜHQ "tl4 ¤ 6ª* «.%¡	durante una giornata nevosa una regina cuciva a una finestra
4H" A;t* s«ª d" %ÜHQ ©4t 6ª* u.¡ Ü.&6 ä(l d" _l¡	dopo qualche tempo la regina ebbe una bimba bianca come la neve
ud& _(=d «t_G d" ¤&s% Dª.Q	per questo chiamarono la bambina biancaneve
4H" d" D¤* 6Q d" %ÜHQ Gs ¨w ln_ 6ª* =&« (=A	dopo la morte di la regina il re sposò una donna bella
d" =&« "=¨H Q4" ¤*DA	la donna possedeva uno specchio
D©u* &4u6 Q( «¨ ¤*DA	quando guardava in lo specchio
;QÜä	diceva
;*« D (=A s*4 %=¤Q Q( _(=d ud_"	chi è bella senza rivali in questo castello
«¨ ¤*DA =_Qu ¤ d" %ÜHQ	lo specchio rispondeva a la regina
;w ªQG (=A s*4 %=¤Q %ÜHQ	tu sei bella senza rivali regina
4H" A;t* s«ª d" %ÜHQ =dQt ¤ «¨ ¤*DA	dopo qualche tempo la regina chiese a lo specchio
;*« D (=A s*4 %=¤Q Q( _(=d ud_"	chi è bella senza rivali in questo castello
«¨ ¤*DA ls4% ¤ d" %ÜHQ	lo specchio rispose a la regina
Dª.Q D (=A s*4 %=¤Q Q( _(=d ud_"	biancaneve è bella senza rivali in questo castello
d" %ÜHQ _.uÜ &64ä ¤ sQ *"td 6Q A=wu Dª.Q	la regina gelosa ordinò a un cacciatore di uccidere biancaneve
=Ü d" äÜ(d 4=%" ¤ .d4& Q( Gs ª©4	ma la ragazza riuscì a scappare in il bosco
D©u* u¨dA d" A*G	quando arrivò la sera
Dª.Q &¨* 6ª* t%«D *nª	biancaneve vide una piccola casa
%Ü_ ud& Dn«w	entrò per riposare
;Dn lD" Q( d" u.ªQ ;sG sw¤H	ogni cosa in la casina era minuscola
Gs HäDQ s4Hª¨ =© 6ª* ¨*;ä Dduª	il tavolino era ricoperto da una tovaglia candida
(nÜ=© &wd w4; l«tÜ	era apparecchiato con sette piattini
;Dn ;w¡n u4« Gs dH¡ Q*D.	ogni piattino aveva il suo cucchiaino
wDuä w4; =¡©6 w4; d4w. w4; AG*%Q	ci erano sette coltelli sette forchette sette bicchierini
Dª.Q 4¤_¨Ü ¡. sQ wst&	biancaneve si addormentò su un lettino
D©u* _(A d" w;s	quando scese la notte
"¡_; n ÜH4A 6Q *nª	tornarono i padroni di casa
A.« nl4 dHA n=HÜ ©& nH. =© n Üd&	erano nani che estraevano l' oro da i monti
n nl4 ntDQ6 dHA ls=A% (4_Q	i nani si accorsero che era entrato qualcuno
sQ d*« =dQt	un nano chiese
;*« H¤&t sQ ¤Üd 6Q Gs H4& D;¤(	chi ha preso un pezzo di il mio panino
sQ ª"ä d*« «Q"	un altro nano disse
;*« n«*( d" Q©% Gu(tª	chi ha usato la mia forchettina
¤ Gs ¡s*D Dª.Q DQ=(	a il mattino biancaneve si svegliò
n nl4 «lª¤ ¤ Dª.Q &wd nQ¤l	i nani chiesero a biancaneve con gentilezza
ä(l «H%u	Come ti chiami
Ü;Gl Dª.Q	mi chiamo biancaneve
Dª.Q ls4% ¤ n nl4	biancaneve rispose a i nani
ä(l ¤;ns4 Q( d" 6d©¨ u.ªQ	come sei arrivata in la nostra casina
HÜ «lª¤ n nl4	le chiesero i nani
Dª.Q ls4% dHA d" %ÜHQ d" wQ6n A=wu	biancaneve rispose che la regina la voleva uccidere
=Ü ¨äw 4=%" ¤ .d4& =© n nl4	ma lei riuscì a scappare da i nani
Q4" 6Q n nl4 =dQt ¤ Dª.Q 6Q &ª(s &wd %A¨ Q( d" u.ªQ	uno di i nani chiese a biancaneve di rimanere con loro in la casina
Dª.Q un(d unQ%	Biancaneve accettò felice
6Q *ld6 n nl4 ¨©ÜH ¡. n Üd& ¤ ;wA. ©& nH.	Di giorno i nani andavano su i monti a cercare l' oro
Dª.Q t6l% nl. Q( d" u.ªQ	biancaneve rimaneva sola in la casina
¨t¤4 Q( Gs ud_" d" %ÜHQ 6t.4 ¤ «¨ ¤*DA	intanto in il castello la regina chiedeva a lo specchio
;*« D (=A s*4 %=¤Q Q( _(=d ud_"	chi è bella senza rivali in questo castello
«¨ ¤*DA ls4%	lo specchio rispose
Q( Gs ud_" ;w =ªu *d; %=¤Q %ÜHQ	in il castello tu non hai rivali regina
=Ü Q( d" u.ªQ Dª.Q D (=A s*4 %=¤Q	ma in la casina biancaneve è bella senza rivali
d" %ÜHQ u(l ©& Q¡(d tn. *"td	la regina capì l' inganno del cacciatore
= «Q"	e disse
snu. d©Ü= Dª.Q 6" un=¡	allora ucciderò Biancaneve io stessa
;4D¤s =© wÜ=¨ ä¨*;	si travestì da vecchia strega
HlÜ ¤ d" *nª 6Q n w4; nl4	andò a la casa di i sette nani
Dª.Q =ªu Qt4= d" %ÜHQ	biancaneve non riconobbe la regina
= ä*_ d" ©«( ¤ d" wÜ=¨	e aprì la porta a la vecchia
d" %ÜHQ ;sDn %H¤ ¤ Dª.Q 6ª* Ü"6 &©ud	la regina travestita offrì a biancaneve una mela avvelenata
Dª.Q =ªu %sw_ dHA d" Ü"6 ;sG &©ud	biancaneve non sapeva che la mela era avvelenata
d" ;ät	la morse
= Dtª ©t=G Q( sQ *.¤ ä«=uª	e cadde subito in un sonno profondissimo
