	1	s	i	i	i	i	i	i	i	i	i	i	i				
								v	i	i	i	i	i				
		p	i	i	i				p	i	p	i	i				
			n	i	i	n	i			n		n	i				
		E	R	S	A	R	S	V	E	S	E	R	S				
		in	un	giorno	nevoso	una	regina	cuciva	in	silenzio	a	la	finestra				
	2	s	i	i	i	i	i	i	i	i	i	i	i				
							v	i	i	i	i	i	i				
								n	i	i	i	i	i				
		p	i	i							p	i	i				
			n	i	n	i		n	i	i		n	i				
		E	D	S	R	S	V	R	S	A	E	R	S				
		dopo	qualche	tempo	la	regina	ebbe	una	bambina	candida	come	la	neve				
	3	s	i	i	i	i	i	i	i	i							
		n	i	i	i	i	v	i	i	i							
		n	i		n	i		n	i	n							
		R	S	C	R	S	V	R	S	S							
		il	re	e	la	regina	chiamarono	la	bambina	biancaneve							
	4	s	i	i	i	i	i	i	i	i	i	i	i				
		p	i	i	i	i	i										
			n	i	i	i	i										
					p	i	i				v	i	i				
			n	i		n	i	n	i	i		n	i				
		E	R	S	E	R	S	R	A	S	V	R	S				
		dopo	la	morte	di	la	regina	una	altra	donna	sposò	il	re				
	5	s	i	i	i	i											
				v	i	i											
		n	i		n	i											
		R	S	V	R	S											
		la	donna	possedeva	uno	specchio											
	6	s	i	i	i	i	i	i	i								
						v	i	i	i								
							p	i	i								
		n	i	n	i			n	i								
		R	S	R	S	V	E	R	S								
		un	giorno	la	donna	chiese	a	lo	specchio								
	7	s	i	i	i	i	i	i	i								
			v	i	i	i	i	i	i								
							p	i	i								
		n			p	i		n	i								
		P	V	A	E	S	E	D	S								
		chi	è	bella	senza	rivali	in	questo	castello								
	8	s	i	i	i	i	i										
				v	i	i	i										
					p	i	i										
		n	i			n	i										
		R	S	V	E	R	S										
		lo	specchio	rispose	a	la	regina										
	9	s	i	i	i	i											
			v	i	i	i											
		n			p	i											
		P	V	A	E	S											
		tu	sei	bella	senza	rivali											
	10	s	i	i	i	i	i	i	i	i	i						
							v	i	i	i	i						
		p	i	i					p	i	i						
			n	i	n	i				n	i						
		E	D	S	R	S	V	B	E	R	S						
		dopo	qualche	tempo	la	regina	chiese	ancora	a	lo	specchio						
	11	s	i	i	i	i	i	i	i								
			v	i	i	i	i	i	i								
							p	i	i								
		n			p	i		n	i								
		P	V	A	E	S	E	D	S								
		chi	è	bella	senza	rivali	in	questo	castello								
	12	s	i	i													
		n	i	v													
		R	S	V													
		lo	specchio	disse													
	13	s	i	i	i	i	i	i	i								
			v	i	i	i	i	i	i								
							p	i	i								
		n			p	i		n	i								
		S	V	A	E	S	E	D	S								
		biancaneve	è	bella	senza	rivali	in	questo	castello								
	14	s	i	i	i	i	i	i	i	i	i	i					
					v	i	i	i	i	i	i	i					
										c	i	i					
							p	i	i		v	i					
		n	i	i		n		n	i			n					
		R	S	A	V	S	E	R	S	Z	V	S					
		la	regina	gelosa	diede	ordine	a	un	cacciatore	di	uccidere	biancaneve					
	15	s	i	i	i	i	i	i	i	i							
					v	i	i	i	i	i							
						c	i	i	i	i							
							v	i	i	i							
								p	i	i							
			n	i					n	i							
		C	R	S	V	Z	V	E	R	S							
		ma	la	ragazza	riuscì	a	scappare	in	il	bosco							
	16	s	i	i	i	i	i	i	i	i	i	i					
										v	i	i					
		p	i		v	i	i	i			c	i					
			n	n		n	i	i				v					
		E	S	S	V	R	A	S	C	V	Z	V					
		di	sera	biancaneve	vide	una	piccola	casa	e	entrò	per	riposare					
	17	s	i	i	i	i	i	i									
				p	i	i											
		n	i		n	i	v	i									
		D	S	E	R	S	V	A									
		ogni	cosa	in	la	casa	era	minuscola									
	18	s	i	i	i	i	i	i									
				v	i	i	i	i									
					p	i	i	i									
		n	i			n	i	i									
		R	S	V	E	R	S	A									
		il	tavolino	era coperto	da	una	tovaglia	candida									
	19	s	i	i	i												
		v	i	i	i												
			p	i	i												
				n	i												
		V	E	D	S												
		era apparecchiato	con	sette	piattini												
	20	s	i	i	i	i	i										
				v	i	i	i										
		n	i		n	i	i										
		D	S	V	R	A	S										
		ogni	piattino	aveva	il	suo	cucchiaino										
	21	s	i	i	i	i	i	i									
		v	i	i	i	i	i	i									
			n	i	n	i	n	i									
		V	D	S	D	S	D	S									
		ci erano	sette	coltelli	sette	forchette	sette	bicchierini									
	22	s	i	i	i	i											
			v	i	i	i											
				p	i	i											
		n			n	i											
		S	V	E	R	S											
		biancaneve	si addormentò	su	un	lettino											
	23	s	i	i	i	i	i	i									
				v	i	i	i	i									
		p	i				p	i									
			n		n	i		n									
		E	S	V	R	S	E	S									
		di	sera	tornarono	i	padroni	di	casa									
	24	s	i	i	i	i	i	i	i	i							
		v	i	i	i	i	i	i	i	i							
			n	i	i	i	i	i	i	i							
				c	i	i	i	i	i	i							
					v	i	i	i	i	i							
								p	i	i							
						n	i		n	i							
		V	S	Z	V	R	S	E	R	S							
		erano	nani	che	estraevano	l	oro	da	i	monti							
	25	s	i	i	i	i	i										
				v	i	i	i										
					c	i	i										
		n	i			n	v										
		R	S	V	Z	P	V										
		i	nani	si accorsero	che	qualcuno	era entrato										
	26	s	i	i													
		n	i	v													
		R	S	V													
		il	primo	disse													
	27	s	i	i	i	i	i	i	i								
			v	i	i	i	i	i	i								
				n	i	i	i	i	i								
						p	i	i	i								
		n					n	i	i								
		P	V	R	S	E	R	D	S								
		chi	ha dato	un	morso	a	il	mio	panino								
	28	s	i	i	i	i	i	i									
				v	i	i	i	i									
					p	i	i	i									
		n	i			n	i	i									
		R	S	V	E	R	A	S									
		il	secondo	disse	a	un	altro	nano									
	29	s	i	i	i	i											
			v	i	i	i											
		n		n	i	i											
		P	V	R	A	S											
		chi	ha usato	la	mia	forchettina											
x	30	s	i	i	i												
		p	i														
			n	n	v												
		E	S	S	V												
		di	mattina	biancaneve	si svegliò												
	31	s	i	i	i	i	i	i									
				v	i	i	i	i									
					p	i	p	i									
		n	i			n		n									
		R	S	V	E	S	E	S									
		i	nani	chiesero	a	biancaneve	con	gentilezza									
x	32	s	i														
			v														
		B	V														
		Come	ti chiami														
	33	s	i														
		v	i														
			n														
		V	S														
		mi chiamo	biancaneve														
	34	s	i	i	i	i											
			v	i	i	i											
				p	i	i											
		n			n	i											
		S	V	E	R	S											
		biancaneve	rispose	a	i	nani											
	35	s	i	i	i	i	i										
		v	i	i	i	i	i										
				p	i	i	i										
					n	n	i										
		B	V	E	R	D	S										
		come	sei arrivata	in	la	nostra	casina										
	36	s	i	i	i	i											
				v	i	i											
					p	i											
		n	i			n											
		R	S	V	E	S											
		i	nani	chiesero	con	curiosità											
	37	s	i	i	i	i	i	i									
			v	i	i	i	i	i									
				c	i	i	i	i									
					v	i	i	i									
		n				n	i	i									
		S	V	Z	V	R	A	S									
		biancaneve	iniziò	a	raccontare	la	sua	storia									
	38	s	i	i	i	i	i	i	i	i							
				v	i	i	i										
						c	i										
		n	i		n		v		n	v							
		R	S	V	S	E	V	C	P	V							
		la	regina	diede	ordine	di	ucciderla	ma	lei	era scappata							
	39	s	i	i	i	i	i	i	i	i	i	i	i				
				v	i	i	i	i	i	i	i	i	i				
							c	i	i	i	i	i	i				
								v	i	i	i	i	i				
					p	i			p	i	p	i	i				
		n	i			n				n		n	i				
		R	S	V	E	S	Z	V	E	P	E	R	S				
		un	nano	chiese	a	biancaneve	di	rimanere	con	loro	in	la	casina				
	40	s	i	i	i	i	i	i	i	i	i						
						v	i	i	i	i	i						
									p	i	i						
		n	v	i			n	i		n	i						
		S	V	A	C	V	R	S	E	D	S						
		biancaneve	accettò	felice	e	diede	un	bacio	a	ogni	nano						
	41	s	i	i	i	i	i	i	i	i	i	i	i				
						v	i	i	i	i	i	i	i				
										c	i	i	i				
		p	i				p	i	i		v	i	i				
			n	n	i			n	i			n	i				
		E	S	R	S	V	E	R	S	Z	V	R	S				
		di	giorno	i	nani	andavano	su	i	monti	a	cercare	l	oro				
	42	s	i	i	i	i	i	i									
			v	i	i	i	i	i									
				c	i	i	i	i									
						p	i	i									
		n					n	i									
		S	V	V	A	E	R	S									
		biancaneve	era solita	rimanere	sola	in	la	casina									
	42b	s	i	i	i	i	i	i	i	i							
					v	i	i	i	i	i							
						c	i	i	i	i							
							v	i	i	i							
								p	i	i							
		n	v						n	i							
		P	V	C	V	B	V	E	R	S							
		lei	cuciva	e	leggeva	quando	era	in	la	casina							
	43	s	i	i	i	i	i	i	i	i	i						
								v	i	i	i						
			p	i	i				p	i	i						
				n	i	n	i			n	i						
		B	E	R	S	R	S	V	E	R	S						
		intanto	in	il	castello	la	regina	chiedeva	a	lo	specchio						
	44	s	i	i	i	i	i	i	i								
			v	i	i	i	i	i	i								
					p	i	p	i	i								
		n				n		n	i								
		P	V	A	E	S	E	D	S								
		chi	è	bella	senza	rivali	in	questo	castello								
	45	s	i	i	i	i	i	i	i								
				n	i	i	i	i									
						p	i	i									
		n	i	n	i		n	i	v								
		D	S	R	S	E	R	S	V								
		quel	giorno	la	risposta	di	lo	specchio	fu								
	46	s	i	i	i	i	i	i									
		p	i	i		v	i	i									
			n	i	n			n									
		E	R	S	P	B	V	S									
		in	il	castello	tu	non	hai	rivali									
	47	s	i	i	i	i	i	i	i	i							
				v	i	i	i										
						p	i	p	i	i							
			n				n		n	i							
		C	S	V	A	E	S	E	R	S							
		ma	biancaneve	è	bella	senza	rivali	in	la	casina							
	48	s	i	i	i	i	i	i	i	i	i						
				v	i	i	i	i	i								
					n	i	i	i	i								
							p	i	i								
		n	i		n	i		n	i		v						
		R	S	V	R	S	E	R	S	C	V						
		la	regina	capì	l	inganno	di	il	cacciatore	e	disse						
	50	s	i	i	i	i											
			v	i													
				n	n	i											
		B	V	S	P	A											
		allora	ucciderò	Biancaneve	io	stessa											
	51	s	i	i	i	i	i	i	i	i	i	i					
									v	i	i	i					
				v	i	i	i			p	i	i					
		n	i		n	i	i				n	i					
		R	S	V	R	S	A	C	V	E	A	S					
		la	regina	preparò	una	pozione	avvelenata	e	si travestì	da	vecchia	strega					
	52	s	i	i	i	i	i	i	i								
		v	i	i	i	i	i	i	i								
			p	i	i	i	i	i	i								
				n	i	i	i	i	i								
						p	i	i	i								
							n	n	i								
		V	E	R	S	E	R	A	S								
		andò	a	la	casina	di	i	sette	nani								
	53	s	i	i	i	i											
			v	i	i	i											
		n			n	i											
		S	B	V	R	S											
		biancaneve	non	riconobbe	la	regina											
	54	s	i	i	i	i	i										
		v	i	i	i	i	i										
					p	i	i										
			n	i		n	i										
		V	R	S	E	R	S										
		aprì	la	porta	a	la	vecchia										
	55	s	i	i	i	i	i										
					v	i	i										
						p	i										
		n	i	i			n										
		R	S	A	V	E	S										
		la	regina	travestita	chiese	a	biancaneve										
	56	s	i	i													
		v	i	i													
			n	i													
		V	R	S													
		desideri	una	mela													
	57	s	i	i	i	i	i	i	i								
			v	i	i	i	i	i	i								
					c	i	i	i	i								
		n				n	i	v	i								
		S	B	V	Z	R	S	V	A								
		biancaneve	non	sapeva	che	la	mela	era	avvelenata								
	58	s	i	i	i	i	i	i	i	i	i	i	i	i	i	i	i
				v	i	i	i	i	i	i		v	i	i	i	i	i
							p	i	i	i				p	i	i	i
		n	i		n	i		n	i	i					n	i	i
		R	S	V	R	S	E	R	S	A	C	V	B	E	R	S	A
		la	ragazza	diede	un	morso	a	la	mela	avvelenata	e	cadde	subito	in	un	sonno	profondissimo
	59	s	i	i	i	i	i	i	i	i	i	i	i				
						v	i	i									
							p	i		v	i	i	i				
		n	i	n	i			n			n	i	i				
		R	S	R	S	V	E	S	C	V	R	S	A				
		la	sera	i	nani	tornarono	a	casa	e	trovarono	la	ragazza	svenuta				
	60	s	i	i	i	i	i	i	i								
				v	i	i	i	i	i								
					n	i	i	i	i								
							p	i	i								
		n	i		n	i		n	i								
		R	S	V	R	S	E	R	S								
		un	nano	riconobbe	la	magia	di	la	regina								
	61	s	i	i	i	i	i	i									
				v	i	i	i	i									
							p	i									
		n	i		n	i		n									
		R	S	V	R	S	E	S									
		il	nano	preparò	un	lettino	a	biancaneve									
	62	s	i	i	i	i											
		n	i	v	n	i											
		R	S	V	R	S											
		un	giorno	arrivò	un	principe											
	63	s	i	i	i	i	i	i	i	i	i	i					
				v	i	i	i	i									
							p	i		v	i	i					
		n	i		n	i		n			n	i					
		R	S	V	R	S	E	S	C	V	R	S					
		il	principe	diede	un	bacio	a	biancaneve	e	spezzò	la	magia					
	64	s	i	i	i												
		n	i	v	i												
		R	S	V	A												
		la	ragazza	si svegliò	felice												
